{
  "project_info": {
    "project_number": "1038329146837",
    "project_id": "tinnhanh-576e7",
    "storage_bucket": "tinnhanh-576e7.appspot.com"
  },
  "client": [
    {
      "client_info": {
        "mobilesdk_app_id": "1:1038329146837:android:a1c4c149d0553c1b4fe15c",
        "android_client_info": {
          "package_name": "com.tin24h.appadmin"
        }
      },
      "oauth_client": [
        {
          "client_id": "1038329146837-nrgtsk1advnj9abu3c8q2o2fikoj1j0r.apps.googleusercontent.com",
          "client_type": 3
        }
      ],
      "api_key": [
        {
          "current_key": "AIzaSyA9dmI63duZ87zbZaedS2TwyFZO_ZJbpPM"
        }
      ],
      "services": {
        "appinvite_service": {
          "other_platform_oauth_client": [
            {
              "client_id": "1038329146837-nrgtsk1advnj9abu3c8q2o2fikoj1j0r.apps.googleusercontent.com",
              "client_type": 3
            },
            {
              "client_id": "1038329146837-2rodphcj4h7qhvjpj50q5ekjnlef8n0v.apps.googleusercontent.com",
              "client_type": 2,
              "ios_info": {
                "bundle_id": "com.abi.coinnews24h"
              }
            }
          ]
        }
      }
    },
    {
      "client_info": {
        "mobilesdk_app_id": "1:1038329146837:android:213bf1ef9cdc820a4fe15c",
        "android_client_info": {
          "package_name": "com.abi.coinnews24h"
        }
      },
      "oauth_client": [
        {
          "client_id": "1038329146837-nrgtsk1advnj9abu3c8q2o2fikoj1j0r.apps.googleusercontent.com",
          "client_type": 3
        }
      ],
      "api_key": [
        {
          "current_key": "AIzaSyA9dmI63duZ87zbZaedS2TwyFZO_ZJbpPM"
        }
      ],
      "services": {
        "appinvite_service": {
          "other_platform_oauth_client": [
            {
              "client_id": "1038329146837-nrgtsk1advnj9abu3c8q2o2fikoj1j0r.apps.googleusercontent.com",
              "client_type": 3
            },
            {
              "client_id": "1038329146837-2rodphcj4h7qhvjpj50q5ekjnlef8n0v.apps.googleusercontent.com",
              "client_type": 2,
              "ios_info": {
                "bundle_id": "com.abi.coinnews24h"
              }
            }
          ]
        }
      }
    }
  ],
  "configuration_version": "1"
}